{"name":"Send information get individual user with response success","id":"information-get-individual-user;send-information-get-individual-user-with-response-success","scenarioId":"get:Send information get individual user with response success","methodName":"Send information get individual user with response success","testSteps":[{"number":1,"description":"Given I call Get user API","duration":3025,"startTime":"2024-11-03T13:09:56.761745900-05:00[America/Bogota]","result":"SUCCESS","precondition":false,"level":0,"children":[{"number":2,"description":"Regres consume get","duration":2760,"startTime":"2024-11-03T13:09:57.019600700-05:00[America/Bogota]","result":"SUCCESS","precondition":false,"level":1,"children":[{"number":3,"description":"Regres execute get","duration":2734,"startTime":"2024-11-03T13:09:57.042375800-05:00[America/Bogota]","result":"SUCCESS","precondition":false,"level":2,"children":[{"number":4,"description":"Regres executes a GET on the resource api/users","duration":2321,"startTime":"2024-11-03T13:09:57.444491600-05:00[America/Bogota]","result":"SUCCESS","precondition":false,"level":3,"children":[{"number":5,"description":"GET https://reqres.in/api/users","duration":0,"startTime":"2024-11-03T13:09:59.764643600-05:00[America/Bogota]","result":"SUCCESS","restQuery":{"method":"GET","path":"https://reqres.in/api/users","content":"","contentType":"application/json","requestHeaders":"Accept\u003d*/*\r\n\t\t\t\tContent-Type\u003dapplication/json","requestCookies":"","responseHeaders":"Date: Sun, 03 Nov 2024 18:10:02 GMT\r\nContent-Type: application/json; charset\u003dutf-8\r\nTransfer-Encoding: chunked\r\nConnection: keep-alive\r\nReport-To: {\"group\":\"heroku-nel\",\"max_age\":3600,\"endpoints\":[{\"url\":\"https://nel.heroku.com/reports?ts\u003d1730654300\u0026sid\u003dc4c9725f-1ab0-44d8-820f-430df2718e11\u0026s\u003dssGq4sJZcnhvMaZAqgCr18jangqASYI0zw0nyzcKBcg%3D\"}]}\r\nReporting-Endpoints: heroku-nel\u003dhttps://nel.heroku.com/reports?ts\u003d1730654300\u0026sid\u003dc4c9725f-1ab0-44d8-820f-430df2718e11\u0026s\u003dssGq4sJZcnhvMaZAqgCr18jangqASYI0zw0nyzcKBcg%3D\r\nNel: {\"report_to\":\"heroku-nel\",\"max_age\":3600,\"success_fraction\":0.005,\"failure_fraction\":0.05,\"response_headers\":[\"Via\"]}\r\nX-Powered-By: Express\r\nAccess-Control-Allow-Origin: *\r\nEtag: W/\"3e4-2RLXvr5wTg9YQ6aH95CkYoFNuO8\"\r\nVia: 1.1 vegur\r\nCache-Control: max-age\u003d14400\r\nCF-Cache-Status: HIT\r\nAge: 3102\r\nVary: Accept-Encoding\r\nServer: cloudflare\r\nCF-RAY: 8dce51a06fb4a560-MIA\r\nContent-Encoding: gzip\r\nserver-timing: cfL4;desc\u003d\"?proto\u003dTCP\u0026rtt\u003d89613\u0026sent\u003d6\u0026recv\u003d6\u0026lost\u003d0\u0026retrans\u003d0\u0026sent_bytes\u003d3111\u0026recv_bytes\u003d801\u0026delivery_rate\u003d46362\u0026cwnd\u003d160\u0026unsent_bytes\u003d0\u0026cid\u003d2e070bc43e3832c7\u0026ts\u003d214\u0026x\u003d0\"\r","responseCookies":"\r","responseBody":"{\n    \"page\": 1,\n    \"per_page\": 6,\n    \"total\": 12,\n    \"total_pages\": 2,\n    \"data\": [\n        {\n            \"id\": 1,\n            \"email\": \"george.bluth@reqres.in\",\n            \"first_name\": \"George\",\n            \"last_name\": \"Bluth\",\n            \"avatar\": \"https://reqres.in/img/faces/1-image.jpg\"\n        },\n        {\n            \"id\": 2,\n            \"email\": \"janet.weaver@reqres.in\",\n            \"first_name\": \"Janet\",\n            \"last_name\": \"Weaver\",\n            \"avatar\": \"https://reqres.in/img/faces/2-image.jpg\"\n        },\n        {\n            \"id\": 3,\n            \"email\": \"emma.wong@reqres.in\",\n            \"first_name\": \"Emma\",\n            \"last_name\": \"Wong\",\n            \"avatar\": \"https://reqres.in/img/faces/3-image.jpg\"\n        },\n        {\n            \"id\": 4,\n            \"email\": \"eve.holt@reqres.in\",\n            \"first_name\": \"Eve\",\n            \"last_name\": \"Holt\",\n            \"avatar\": \"https://reqres.in/img/faces/4-image.jpg\"\n        },\n        {\n            \"id\": 5,\n            \"email\": \"charles.morris@reqres.in\",\n            \"first_name\": \"Charles\",\n            \"last_name\": \"Morris\",\n            \"avatar\": \"https://reqres.in/img/faces/5-image.jpg\"\n        },\n        {\n            \"id\": 6,\n            \"email\": \"tracey.ramos@reqres.in\",\n            \"first_name\": \"Tracey\",\n            \"last_name\": \"Ramos\",\n            \"avatar\": \"https://reqres.in/img/faces/6-image.jpg\"\n        }\n    ],\n    \"support\": {\n        \"url\": \"https://reqres.in/#support-heading\",\n        \"text\": \"To keep ReqRes free, contributions towards server costs are appreciated!\"\n    }\n}","statusCode":200},"precondition":false,"level":4}]}]}]}]},{"number":6,"description":"Then I should see the status code 200","duration":139,"startTime":"2024-11-03T13:09:59.789661900-05:00[America/Bogota]","result":"SUCCESS","precondition":false,"level":0,"children":[{"number":7,"description":"Then The response code is correct","duration":39,"startTime":"2024-11-03T13:09:59.883673800-05:00[America/Bogota]","result":"SUCCESS","precondition":false,"level":1,"children":[{"number":8,"description":"VALIDATION_STATUS_CODE","duration":27,"startTime":"2024-11-03T13:09:59.891396300-05:00[America/Bogota]","result":"SUCCESS","precondition":false,"level":2}]}]},{"number":9,"description":"And I validate get response contain data expected","duration":1,"startTime":"2024-11-03T13:09:59.929375200-05:00[America/Bogota]","result":"SUCCESS","precondition":false,"level":0}],"userStory":{"id":"get","storyName":"Information get individual user","displayName":"Information get individual user","path":"get","pathElements":[{"name":"get","description":""}],"type":"feature"},"title":"Send information get individual user with response success","description":"","startTime":"2024-11-03T13:09:56.622366100-05:00[America/Bogota]","endTime":"2024-11-03T13:09:59.933286600-05:00[America/Bogota]","duration":3142,"projectKey":"","isManualTestingUpToDate":false,"manual":false,"testSource":"Cucumber","actors":[{"name":"Regres","can":["browse the web","call an API at https://reqres.in/"]}],"order":0,"result":"SUCCESS"}