{"name":"Retrieve all user","id":"create-user;retrieve-all-user","scenarioId":"user/user:Retrieve all user","methodName":"Retrieve all user","testSteps":[{"number":1,"description":"Given I have access to the system","duration":377,"startTime":"2024-11-03T13:27:11.160633200-05:00[America/Bogota]","result":"SUCCESS","precondition":false,"level":0,"children":[{"number":2,"description":"Regres consume get","duration":370,"startTime":"2024-11-03T13:27:11.163795200-05:00[America/Bogota]","result":"SUCCESS","precondition":false,"level":1,"children":[{"number":3,"description":"Regres execute get","duration":361,"startTime":"2024-11-03T13:27:11.168800500-05:00[America/Bogota]","result":"SUCCESS","precondition":false,"level":2,"children":[{"number":4,"description":"Regres executes a GET on the resource api/users","duration":342,"startTime":"2024-11-03T13:27:11.176430300-05:00[America/Bogota]","result":"SUCCESS","precondition":false,"level":3,"children":[{"number":5,"description":"GET https://reqres.in/api/users","duration":0,"startTime":"2024-11-03T13:27:11.518949400-05:00[America/Bogota]","result":"SUCCESS","restQuery":{"method":"GET","path":"https://reqres.in/api/users","content":"","contentType":"application/json","requestHeaders":"Accept\u003d*/*\r\n\t\t\t\tContent-Type\u003dapplication/json","requestCookies":"","responseHeaders":"Date: Sun, 03 Nov 2024 18:27:14 GMT\r\nContent-Type: application/json; charset\u003dutf-8\r\nTransfer-Encoding: chunked\r\nConnection: keep-alive\r\nReport-To: {\"group\":\"heroku-nel\",\"max_age\":3600,\"endpoints\":[{\"url\":\"https://nel.heroku.com/reports?ts\u003d1730654300\u0026sid\u003dc4c9725f-1ab0-44d8-820f-430df2718e11\u0026s\u003dssGq4sJZcnhvMaZAqgCr18jangqASYI0zw0nyzcKBcg%3D\"}]}\r\nReporting-Endpoints: heroku-nel\u003dhttps://nel.heroku.com/reports?ts\u003d1730654300\u0026sid\u003dc4c9725f-1ab0-44d8-820f-430df2718e11\u0026s\u003dssGq4sJZcnhvMaZAqgCr18jangqASYI0zw0nyzcKBcg%3D\r\nNel: {\"report_to\":\"heroku-nel\",\"max_age\":3600,\"success_fraction\":0.005,\"failure_fraction\":0.05,\"response_headers\":[\"Via\"]}\r\nX-Powered-By: Express\r\nAccess-Control-Allow-Origin: *\r\nEtag: W/\"3e4-2RLXvr5wTg9YQ6aH95CkYoFNuO8\"\r\nVia: 1.1 vegur\r\nCache-Control: max-age\u003d14400\r\nCF-Cache-Status: HIT\r\nAge: 4134\r\nVary: Accept-Encoding\r\nServer: cloudflare\r\nCF-RAY: 8dce6ad16ddd8db2-MIA\r\nContent-Encoding: gzip\r\nserver-timing: cfL4;desc\u003d\"?proto\u003dTCP\u0026rtt\u003d94467\u0026sent\u003d5\u0026recv\u003d6\u0026lost\u003d0\u0026retrans\u003d0\u0026sent_bytes\u003d3111\u0026recv_bytes\u003d801\u0026delivery_rate\u003d42892\u0026cwnd\u003d123\u0026unsent_bytes\u003d0\u0026cid\u003d8f9d8f789b759407\u0026ts\u003d122\u0026x\u003d0\"\r","responseCookies":"\r","responseBody":"{\n    \"page\": 1,\n    \"per_page\": 6,\n    \"total\": 12,\n    \"total_pages\": 2,\n    \"data\": [\n        {\n            \"id\": 1,\n            \"email\": \"george.bluth@reqres.in\",\n            \"first_name\": \"George\",\n            \"last_name\": \"Bluth\",\n            \"avatar\": \"https://reqres.in/img/faces/1-image.jpg\"\n        },\n        {\n            \"id\": 2,\n            \"email\": \"janet.weaver@reqres.in\",\n            \"first_name\": \"Janet\",\n            \"last_name\": \"Weaver\",\n            \"avatar\": \"https://reqres.in/img/faces/2-image.jpg\"\n        },\n        {\n            \"id\": 3,\n            \"email\": \"emma.wong@reqres.in\",\n            \"first_name\": \"Emma\",\n            \"last_name\": \"Wong\",\n            \"avatar\": \"https://reqres.in/img/faces/3-image.jpg\"\n        },\n        {\n            \"id\": 4,\n            \"email\": \"eve.holt@reqres.in\",\n            \"first_name\": \"Eve\",\n            \"last_name\": \"Holt\",\n            \"avatar\": \"https://reqres.in/img/faces/4-image.jpg\"\n        },\n        {\n            \"id\": 5,\n            \"email\": \"charles.morris@reqres.in\",\n            \"first_name\": \"Charles\",\n            \"last_name\": \"Morris\",\n            \"avatar\": \"https://reqres.in/img/faces/5-image.jpg\"\n        },\n        {\n            \"id\": 6,\n            \"email\": \"tracey.ramos@reqres.in\",\n            \"first_name\": \"Tracey\",\n            \"last_name\": \"Ramos\",\n            \"avatar\": \"https://reqres.in/img/faces/6-image.jpg\"\n        }\n    ],\n    \"support\": {\n        \"url\": \"https://reqres.in/#support-heading\",\n        \"text\": \"To keep ReqRes free, contributions towards server costs are appreciated!\"\n    }\n}","statusCode":200},"precondition":false,"level":4}]}]}]}]},{"number":6,"description":"When I retrieve all user","duration":30,"startTime":"2024-11-03T13:27:11.539242100-05:00[America/Bogota]","exception":{"errorType":"java.lang.NullPointerException","message":"Cannot invoke \"Object.getClass()\" because \"object\" is null","stackTrace":[{"declaringClass":"com.udea.restapiautomation.task.ConsumeGet","methodName":"list","fileName":"ConsumeGet.java","lineNumber":13},{"declaringClass":"com.udea.restapiautomation.stepdefinitions.user.UserStepdefinitions","methodName":"iRetrieveAllUser","fileName":"UserStepdefinitions.java","lineNumber":83},{"declaringClass":"✽","methodName":"I retrieve all user","fileName":"file:///C:/Users/marit/OneDrive/Documentos/Udea/Semestre-VII/Calidad/Rest-API-Automation/src/test/java/resources/features/user/user.feature","lineNumber":23}]},"result":"ERROR","precondition":false,"level":0},{"number":7,"description":"Then I should see the list of user","duration":0,"startTime":"2024-11-03T13:27:11.578178400-05:00[America/Bogota]","result":"SKIPPED","precondition":false,"level":0}],"userStory":{"id":"user/user","storyName":"Create user","displayName":"Create user","path":"user/user","pathElements":[{"name":"user","description":""},{"name":"user","description":""}],"narrative":"  As a new user\n  I want to register in the system\n  To create an account","type":"feature"},"title":"Retrieve all user","description":"","startTime":"2024-11-03T13:27:11.153632300-05:00[America/Bogota]","endTime":"2024-11-03T13:27:11.538258700-05:00[America/Bogota]","duration":365,"testFailureCause":{"errorType":"java.lang.NullPointerException","message":"Cannot invoke \"Object.getClass()\" because \"object\" is null","stackTrace":[{"declaringClass":"com.udea.restapiautomation.task.ConsumeGet","methodName":"list","fileName":"ConsumeGet.java","lineNumber":13},{"declaringClass":"com.udea.restapiautomation.stepdefinitions.user.UserStepdefinitions","methodName":"iRetrieveAllUser","fileName":"UserStepdefinitions.java","lineNumber":83},{"declaringClass":"✽","methodName":"I retrieve all user","fileName":"file:///C:/Users/marit/OneDrive/Documentos/Udea/Semestre-VII/Calidad/Rest-API-Automation/src/test/java/resources/features/user/user.feature","lineNumber":23}]},"testFailureClassname":"java.lang.NullPointerException","testFailureMessage":"Cannot invoke \"Object.getClass()\" because \"object\" is null","testFailureSummary":"ERROR;java.lang.NullPointerException;Cannot invoke \"Object.getClass()\" because \"object\" is null;ConsumeGet.java","projectKey":"","annotatedResult":"ERROR","isManualTestingUpToDate":false,"manual":false,"testSource":"Cucumber","actors":[{"name":"Regres","can":["browse the web","call an API at https://reqres.in/"]}],"order":0,"result":"ERROR"}