{"name":"Retrieve a user {int}","id":"create-user;retrieve-a-user-{int}","scenarioId":"user/user:Retrieve a user {int}","methodName":"Retrieve a user {int}","testSteps":[{"number":1,"description":"Given I have access to the system","duration":446,"startTime":"2024-11-03T12:43:14.092244300-05:00[America/Bogota]","result":"SUCCESS","precondition":false,"level":0,"children":[{"number":2,"description":"Regres consume get","duration":434,"startTime":"2024-11-03T12:43:14.098939400-05:00[America/Bogota]","result":"SUCCESS","precondition":false,"level":1,"children":[{"number":3,"description":"Regres execute get","duration":424,"startTime":"2024-11-03T12:43:14.105449600-05:00[America/Bogota]","result":"SUCCESS","precondition":false,"level":2,"children":[{"number":4,"description":"Regres executes a GET on the resource api/users","duration":386,"startTime":"2024-11-03T12:43:14.124296500-05:00[America/Bogota]","result":"SUCCESS","precondition":false,"level":3,"children":[{"number":5,"description":"GET https://reqres.in/api/users","duration":0,"startTime":"2024-11-03T12:43:14.510425300-05:00[America/Bogota]","result":"SUCCESS","restQuery":{"method":"GET","path":"https://reqres.in/api/users","content":"","contentType":"application/json","requestHeaders":"Accept\u003d*/*\r\n\t\t\t\tContent-Type\u003dapplication/json","requestCookies":"","responseHeaders":"Date: Sun, 03 Nov 2024 17:43:17 GMT\r\nContent-Type: application/json; charset\u003dutf-8\r\nTransfer-Encoding: chunked\r\nConnection: keep-alive\r\nReport-To: {\"group\":\"heroku-nel\",\"max_age\":3600,\"endpoints\":[{\"url\":\"https://nel.heroku.com/reports?ts\u003d1730654300\u0026sid\u003dc4c9725f-1ab0-44d8-820f-430df2718e11\u0026s\u003dssGq4sJZcnhvMaZAqgCr18jangqASYI0zw0nyzcKBcg%3D\"}]}\r\nReporting-Endpoints: heroku-nel\u003dhttps://nel.heroku.com/reports?ts\u003d1730654300\u0026sid\u003dc4c9725f-1ab0-44d8-820f-430df2718e11\u0026s\u003dssGq4sJZcnhvMaZAqgCr18jangqASYI0zw0nyzcKBcg%3D\r\nNel: {\"report_to\":\"heroku-nel\",\"max_age\":3600,\"success_fraction\":0.005,\"failure_fraction\":0.05,\"response_headers\":[\"Via\"]}\r\nX-Powered-By: Express\r\nAccess-Control-Allow-Origin: *\r\nEtag: W/\"3e4-2RLXvr5wTg9YQ6aH95CkYoFNuO8\"\r\nVia: 1.1 vegur\r\nCache-Control: max-age\u003d14400\r\nCF-Cache-Status: HIT\r\nAge: 1497\r\nVary: Accept-Encoding\r\nServer: cloudflare\r\nCF-RAY: 8dce2a703c14742a-MIA\r\nContent-Encoding: gzip\r\nserver-timing: cfL4;desc\u003d\"?proto\u003dTCP\u0026rtt\u003d96140\u0026sent\u003d5\u0026recv\u003d6\u0026lost\u003d0\u0026retrans\u003d0\u0026sent_bytes\u003d3109\u0026recv_bytes\u003d801\u0026delivery_rate\u003d43808\u0026cwnd\u003d153\u0026unsent_bytes\u003d0\u0026cid\u003d800c70fef0c31509\u0026ts\u003d126\u0026x\u003d0\"\r","responseCookies":"\r","responseBody":"{\n    \"page\": 1,\n    \"per_page\": 6,\n    \"total\": 12,\n    \"total_pages\": 2,\n    \"data\": [\n        {\n            \"id\": 1,\n            \"email\": \"george.bluth@reqres.in\",\n            \"first_name\": \"George\",\n            \"last_name\": \"Bluth\",\n            \"avatar\": \"https://reqres.in/img/faces/1-image.jpg\"\n        },\n        {\n            \"id\": 2,\n            \"email\": \"janet.weaver@reqres.in\",\n            \"first_name\": \"Janet\",\n            \"last_name\": \"Weaver\",\n            \"avatar\": \"https://reqres.in/img/faces/2-image.jpg\"\n        },\n        {\n            \"id\": 3,\n            \"email\": \"emma.wong@reqres.in\",\n            \"first_name\": \"Emma\",\n            \"last_name\": \"Wong\",\n            \"avatar\": \"https://reqres.in/img/faces/3-image.jpg\"\n        },\n        {\n            \"id\": 4,\n            \"email\": \"eve.holt@reqres.in\",\n            \"first_name\": \"Eve\",\n            \"last_name\": \"Holt\",\n            \"avatar\": \"https://reqres.in/img/faces/4-image.jpg\"\n        },\n        {\n            \"id\": 5,\n            \"email\": \"charles.morris@reqres.in\",\n            \"first_name\": \"Charles\",\n            \"last_name\": \"Morris\",\n            \"avatar\": \"https://reqres.in/img/faces/5-image.jpg\"\n        },\n        {\n            \"id\": 6,\n            \"email\": \"tracey.ramos@reqres.in\",\n            \"first_name\": \"Tracey\",\n            \"last_name\": \"Ramos\",\n            \"avatar\": \"https://reqres.in/img/faces/6-image.jpg\"\n        }\n    ],\n    \"support\": {\n        \"url\": \"https://reqres.in/#support-heading\",\n        \"text\": \"To keep ReqRes free, contributions towards server costs are appreciated!\"\n    }\n}","statusCode":200},"precondition":false,"level":4}]}]}]}]},{"number":6,"description":"When I retrieve a user","duration":10,"startTime":"2024-11-03T12:43:14.539483200-05:00[America/Bogota]","exception":{"errorType":"io.cucumber.core.exception.CucumberException","message":"Step [I retrieve a user] is defined with 1 parameters at \u0027com.udea.restapiautomation.stepdefinitions.user.UserStepdefinitions.iRetrieveAUser(java.lang.Integer)\u0027.\nHowever, the gherkin step has 0 arguments.\nStep text: I retrieve a user","stackTrace":[{"declaringClass":"worker.org.gradle.process.internal.worker.GradleWorkerMain","methodName":"run","fileName":"GradleWorkerMain.java","lineNumber":69},{"declaringClass":"worker.org.gradle.process.internal.worker.GradleWorkerMain","methodName":"main","fileName":"GradleWorkerMain.java","lineNumber":74}]},"result":"ERROR","precondition":false,"level":0},{"number":7,"description":"Then I should see the user","duration":0,"startTime":"2024-11-03T12:43:14.551004700-05:00[America/Bogota]","result":"SKIPPED","precondition":false,"level":0}],"userStory":{"id":"user/user","storyName":"Create user","displayName":"Create user","path":"user/user","pathElements":[{"name":"user","description":""},{"name":"user","description":""}],"narrative":"  As a new user\n  I want to register in the system\n  To create an account","type":"feature"},"title":"Retrieve a user {int}","description":"","startTime":"2024-11-03T12:43:14.077734100-05:00[America/Bogota]","endTime":"2024-11-03T12:43:14.558518100-05:00[America/Bogota]","duration":432,"testFailureCause":{"errorType":"io.cucumber.core.exception.CucumberException","message":"Step [I retrieve a user] is defined with 1 parameters at \u0027com.udea.restapiautomation.stepdefinitions.user.UserStepdefinitions.iRetrieveAUser(java.lang.Integer)\u0027.\nHowever, the gherkin step has 0 arguments.\nStep text: I retrieve a user","stackTrace":[{"declaringClass":"worker.org.gradle.process.internal.worker.GradleWorkerMain","methodName":"run","fileName":"GradleWorkerMain.java","lineNumber":69},{"declaringClass":"worker.org.gradle.process.internal.worker.GradleWorkerMain","methodName":"main","fileName":"GradleWorkerMain.java","lineNumber":74}]},"testFailureClassname":"io.cucumber.core.exception.CucumberException","testFailureMessage":"Step [I retrieve a user] is defined with 1 parameters at \u0027com.udea.restapiautomation.stepdefinitions.user.UserStepdefinitions.iRetrieveAUser(java.lang.Integer)\u0027.\nHowever, the gherkin step has 0 arguments.\nStep text: I retrieve a user","testFailureSummary":"ERROR;io.cucumber.core.exception.CucumberException;Step [I retrieve a user] is defined with 1 parameters at \u0027com.udea.restapiautomation.stepdefinitions.user.UserStepdefinitions.iRetrieveAUser(java.lang.Integer)\u0027.\nHowever, the gherkin step has 0 arguments.\nStep text: I retrieve a user;GradleWorkerMain.java","projectKey":"","annotatedResult":"ERROR","isManualTestingUpToDate":false,"manual":false,"testSource":"Cucumber","actors":[{"name":"Regres","can":["browse the web","call an API at https://reqres.in/"]}],"order":0,"result":"ERROR"}