{"name":"Retrieve a user","id":"create-user;retrieve-a-user","scenarioId":"user/user:Retrieve a user","methodName":"Retrieve a user","testSteps":[{"number":1,"description":"Given I have access to the system","duration":390,"startTime":"2024-11-03T14:54:20.477909100-05:00[America/Bogota]","result":"SUCCESS","precondition":false,"level":0,"children":[{"number":2,"description":"Regres consume get","duration":378,"startTime":"2024-11-03T14:54:20.485906600-05:00[America/Bogota]","result":"SUCCESS","precondition":false,"level":1,"children":[{"number":3,"description":"Regres execute get","duration":367,"startTime":"2024-11-03T14:54:20.491905100-05:00[America/Bogota]","result":"SUCCESS","precondition":false,"level":2,"children":[{"number":4,"description":"Regres executes a GET on the resource api/users","duration":353,"startTime":"2024-11-03T14:54:20.501935100-05:00[America/Bogota]","result":"SUCCESS","precondition":false,"level":3,"children":[{"number":5,"description":"GET https://reqres.in/api/users","duration":0,"startTime":"2024-11-03T14:54:20.855151500-05:00[America/Bogota]","result":"SUCCESS","restQuery":{"method":"GET","path":"https://reqres.in/api/users","content":"","contentType":"application/json","requestHeaders":"Accept\u003d*/*\r\n\t\t\t\tContent-Type\u003dapplication/json","requestCookies":"","responseHeaders":"Date: Sun, 03 Nov 2024 19:54:24 GMT\r\nContent-Type: application/json; charset\u003dutf-8\r\nTransfer-Encoding: chunked\r\nConnection: keep-alive\r\nReport-To: {\"group\":\"heroku-nel\",\"max_age\":3600,\"endpoints\":[{\"url\":\"https://nel.heroku.com/reports?ts\u003d1730654300\u0026sid\u003dc4c9725f-1ab0-44d8-820f-430df2718e11\u0026s\u003dssGq4sJZcnhvMaZAqgCr18jangqASYI0zw0nyzcKBcg%3D\"}]}\r\nReporting-Endpoints: heroku-nel\u003dhttps://nel.heroku.com/reports?ts\u003d1730654300\u0026sid\u003dc4c9725f-1ab0-44d8-820f-430df2718e11\u0026s\u003dssGq4sJZcnhvMaZAqgCr18jangqASYI0zw0nyzcKBcg%3D\r\nNel: {\"report_to\":\"heroku-nel\",\"max_age\":3600,\"success_fraction\":0.005,\"failure_fraction\":0.05,\"response_headers\":[\"Via\"]}\r\nX-Powered-By: Express\r\nAccess-Control-Allow-Origin: *\r\nEtag: W/\"3e4-2RLXvr5wTg9YQ6aH95CkYoFNuO8\"\r\nVia: 1.1 vegur\r\nCache-Control: max-age\u003d14400\r\nCF-Cache-Status: HIT\r\nAge: 2113\r\nVary: Accept-Encoding\r\nServer: cloudflare\r\nCF-RAY: 8dceea7c8e55a69e-MIA\r\nContent-Encoding: gzip\r\nserver-timing: cfL4;desc\u003d\"?proto\u003dTCP\u0026rtt\u003d97532\u0026sent\u003d5\u0026recv\u003d6\u0026lost\u003d0\u0026retrans\u003d0\u0026sent_bytes\u003d3110\u0026recv_bytes\u003d801\u0026delivery_rate\u003d41994\u0026cwnd\u003d137\u0026unsent_bytes\u003d0\u0026cid\u003d1c1638ff823dac93\u0026ts\u003d122\u0026x\u003d0\"\r","responseCookies":"\r","responseBody":"{\n    \"page\": 1,\n    \"per_page\": 6,\n    \"total\": 12,\n    \"total_pages\": 2,\n    \"data\": [\n        {\n            \"id\": 1,\n            \"email\": \"george.bluth@reqres.in\",\n            \"first_name\": \"George\",\n            \"last_name\": \"Bluth\",\n            \"avatar\": \"https://reqres.in/img/faces/1-image.jpg\"\n        },\n        {\n            \"id\": 2,\n            \"email\": \"janet.weaver@reqres.in\",\n            \"first_name\": \"Janet\",\n            \"last_name\": \"Weaver\",\n            \"avatar\": \"https://reqres.in/img/faces/2-image.jpg\"\n        },\n        {\n            \"id\": 3,\n            \"email\": \"emma.wong@reqres.in\",\n            \"first_name\": \"Emma\",\n            \"last_name\": \"Wong\",\n            \"avatar\": \"https://reqres.in/img/faces/3-image.jpg\"\n        },\n        {\n            \"id\": 4,\n            \"email\": \"eve.holt@reqres.in\",\n            \"first_name\": \"Eve\",\n            \"last_name\": \"Holt\",\n            \"avatar\": \"https://reqres.in/img/faces/4-image.jpg\"\n        },\n        {\n            \"id\": 5,\n            \"email\": \"charles.morris@reqres.in\",\n            \"first_name\": \"Charles\",\n            \"last_name\": \"Morris\",\n            \"avatar\": \"https://reqres.in/img/faces/5-image.jpg\"\n        },\n        {\n            \"id\": 6,\n            \"email\": \"tracey.ramos@reqres.in\",\n            \"first_name\": \"Tracey\",\n            \"last_name\": \"Ramos\",\n            \"avatar\": \"https://reqres.in/img/faces/6-image.jpg\"\n        }\n    ],\n    \"support\": {\n        \"url\": \"https://reqres.in/#support-heading\",\n        \"text\": \"To keep ReqRes free, contributions towards server costs are appreciated!\"\n    }\n}","statusCode":200},"precondition":false,"level":4}]}]}]}]},{"number":6,"description":"Then I retrieve a user","duration":125,"startTime":"2024-11-03T14:54:20.868373600-05:00[America/Bogota]","result":"SUCCESS","precondition":false,"level":0,"children":[{"number":7,"description":"Then The response code is 200 should be (200)","duration":5,"startTime":"2024-11-03T14:54:20.983545800-05:00[America/Bogota]","result":"SUCCESS","precondition":false,"level":1}]},{"number":8,"description":"And I validate get response contain data expected","duration":607,"startTime":"2024-11-03T14:54:20.994551900-05:00[America/Bogota]","result":"SUCCESS","precondition":false,"level":0,"children":[{"number":9,"description":"Then the fields and values get response are","duration":599,"startTime":"2024-11-03T14:54:20.998545400-05:00[America/Bogota]","result":"SUCCESS","precondition":false,"level":1,"children":[{"number":10,"description":"Validation fields and values get services response","duration":588,"startTime":"2024-11-03T14:54:21.005547-05:00[America/Bogota]","result":"SUCCESS","precondition":false,"level":2}]}]}],"userStory":{"id":"user/user","storyName":"Create user","displayName":"Create user","path":"user/user","pathElements":[{"name":"user","description":""},{"name":"user","description":""}],"narrative":"  As a new user\n  I want to register in the system\n  To create an account","type":"feature"},"title":"Retrieve a user","description":"","startTime":"2024-11-03T14:54:20.462741-05:00[America/Bogota]","endTime":"2024-11-03T14:54:21.601937300-05:00[America/Bogota]","duration":392,"projectKey":"","isManualTestingUpToDate":false,"manual":false,"testSource":"Cucumber","actors":[{"name":"Regres","can":["browse the web","call an API at https://reqres.in/"]}],"order":0,"result":"SUCCESS"}